CRT Midterm
…
#pivot longer by number_level to "level" 
cat_long <- categories %>%
  pivot_longer(cols = 6:9,
               names_to = "level",
               values_to = "n") %>% 
  mutate(level = parse_number(level),
         level = as.character(level),
         n = as.integer(n)) %>% 
  filter(n!="NA")

cat_long

## # A tibble: 90,576 x 7
##    academic_year district   school         student_group grade_level level     n
##    <chr>         <chr>      <chr>          <chr>         <chr>       <chr> <int>
##  1 2014-2015     Adrian SD Adrian Elemen Hispanic/Lat Grade 3     4         1
##  2 2014-2015     Adrian SD Adrian Elemen Hispanic/Lat Grade 3     3         2
##  3 2014-2015     Adrian SD Adrian Elemen Hispanic/Lat Grade 3     2         1
##  4 2014-2015     Adrian SD Adrian Elemen Hispanic/Lat Grade 3     1         2
##  5 2014-2015     Adrian SD Adrian Elemen Hispanic/Lat Grade 6     4         0
##  6 2014-2015     Adrian SD Adrian Elemen Hispanic/Lat Grade 6     3         2
##  7 2014-2015     Adrian SD Adrian Elemen Hispanic/Lat Grade 6     2         3
##  8 2014-2015     Adrian SD Adrian Elemen Hispanic/Lat Grade 6     1         2
##  9 2014-2015     Adrian SD Adrian Elemen Hispanic/Lat Grade 7     4         0
## 10 2014-2015     Adrian SD Adrian Elemen Hispanic/Lat Grade 7     3         2
## #  with 90,566 more rows
…
